Integer_Datapath/isim.log
ISim log file
Running: C:\Users\Rosswell\Documents\_440\ISA_440\Integer_Datapath\Integer_Datapath_tb_isim_beh.exe -intstyle ise -gui -tclbatch isim.cmd -wdb C:/Users/Rosswell/Documents/_440/ISA_440/Integer_Datapath/Integer_Datapath_tb_isim_beh.wdb 
ISim P.20131013 (signature 0x7708f090)
WARNING: A WEBPACK license was found.
WARNING: Please use Xilinx License Configuration Manager to check out a full ISim license.
WARNING: ISim will run in Lite mode. Please refer to the ISim documentation for more information on the differences between the Lite and the Full version.
This is a Lite version of ISim.
Time resolution is 1 ps
# onerror resume
# wave add /
# run 1000 ns
Simulator is doing circuit initialization process.
Finished circuit initialization process.

PERFORMING REGISTER INITIALIZATION


PERFORMING REGISTER DUMP

t =  210.0 ps || S_Addr: 00|| ALU_OUT: 00000000
t =  220.0 ps || S_Addr: 01|| ALU_OUT: 12345678
t =  230.0 ps || S_Addr: 02|| ALU_OUT: 89abcdef
t =  240.0 ps || S_Addr: 03|| ALU_OUT: a5a5a5a5
t =  250.0 ps || S_Addr: 04|| ALU_OUT: 5a5a5a5a
t =  260.0 ps || S_Addr: 05|| ALU_OUT: 2468ace0
t =  270.0 ps || S_Addr: 06|| ALU_OUT: 13579bdf
t =  280.0 ps || S_Addr: 07|| ALU_OUT: 0f0f0f0f
t =  290.0 ps || S_Addr: 08|| ALU_OUT: f0f0f0f0
t =  300.0 ps || S_Addr: 09|| ALU_OUT: 00000009
t =  310.0 ps || S_Addr: 0a|| ALU_OUT: 0000000a
t =  320.0 ps || S_Addr: 0b|| ALU_OUT: 0000000b
t =  330.0 ps || S_Addr: 0c|| ALU_OUT: 0000000c
t =  340.0 ps || S_Addr: 0d|| ALU_OUT: 0000000d
t =  350.0 ps || S_Addr: 0e|| ALU_OUT: fffffff8
t =  360.0 ps || S_Addr: 0f|| ALU_OUT: 000075cc
 

PERFORMING MICRO-OPERATIONS


PERFORMING REGISTER DUMP

t =  530.0 ps || S_Addr: 00|| ALU_OUT: 00000000
t =  540.0 ps || S_Addr: 01|| ALU_OUT: ffffffff
t =  550.0 ps || S_Addr: 02|| ALU_OUT: 00000007
t =  560.0 ps || S_Addr: 03|| ALU_OUT: 2d2d2d2d
t =  570.0 ps || S_Addr: 04|| ALU_OUT: 48d159c0
t =  580.0 ps || S_Addr: 05|| ALU_OUT: fffff147
t =  590.0 ps || S_Addr: 06|| ALU_OUT: 00000004
t =  600.0 ps || S_Addr: 07|| ALU_OUT: ffffffc9
t =  610.0 ps || S_Addr: 08|| ALU_OUT: ffffffff
t =  620.0 ps || S_Addr: 09|| ALU_OUT: ffffffea
t =  630.0 ps || S_Addr: 0a|| ALU_OUT: fffffff6
t =  640.0 ps || S_Addr: 0b|| ALU_OUT: fffffff4
t =  650.0 ps || S_Addr: 0c|| ALU_OUT: abcdef01
t =  660.0 ps || S_Addr: 0d|| ALU_OUT: 100100c0
t =  670.0 ps || S_Addr: 0e|| ALU_OUT: fffffff8
t =  680.0 ps || S_Addr: 0f|| ALU_OUT: 000075cc
 
